parameters for new slaves cc7
=============================

https://ics-fd-cpp-master.web.cern.ch/view/admin/job/Create_Unix_Slave/

mludwig
passwd
2018-12-03
ci-can-cc7-XXX
b22d0884-c2de-4e31-a8b4-54f8067be67a 
BE Ci for ICS

CAN dependencies 3rd Party
--------------------------
download into /root/tgz

cmake-3.14 (disable 2.8 /usr/local)
boost-1.69.0 (/usr/local)
AnaGate (/opt/AnaGate)
libsocketcan clone from ssh://git@gitlab.cern.ch:7999/mludwig/CAN_libsocketcan.git (/usr/local)





parameters for w2016s slaves
============================
volume in M:
xerces-c in M:
