# canx, statistics, dump, version 2.2.4, 15-2-2024, 15h19m8s
bus,	port.BR ,	tot.tx ,	tot.rx ,	tx.FR ,	rx.FR ,	hw.BL 
sock:can0,	250000,	4985,	4962,	498,	496,	0.445624
sock:can1,	250000,	4962,	4985,	496,	498,	0.445624
