# canx, statistics, dump, version 2.2.4, 15-2-2024, 15h15m20s
bus,	port.BR ,	tot.tx ,	tot.rx ,	tx.FR ,	rx.FR ,	hw.BL 
sock:can0,	250000,	4981,	4959,	498,	495,	0.445312
sock:can1,	250000,	4959,	4981,	495,	498,	0.445312
