# canx, statistics, dump, version 2.2.4, 15-2-2024, 12h57m58s
bus,	port.BR ,	tot.tx ,	tot.rx ,	tx.FR ,	rx.FR ,	hw.BL 
sock:can0,	125000,	5000,	5000,	161,	161,	0.289032
sock:can1,	125000,	5000,	5000,	161,	161,	0.289032
