# canx, statistics, dump, version 2.2.4, 19-2-2024, 15h33m22s
bus,	port.BR ,	tot.tx ,	tot.rx ,	tx.FR ,	rx.FR ,	hw.BL 
an2:0:ANACANFZ16-01F4-131E.cern.ch,	20000,	50000,	174407,	39,	136,	0.98485
an2:1:ANACANFZ16-01F4-131E.cern.ch,	20000,	50000,	174389,	39,	136,	0.98475
an2:2:ANACANFZ16-01F4-131E.cern.ch,	20000,	50000,	174372,	39,	136,	0.9847
an2:3:ANACANFZ16-01F4-131E.cern.ch,	20000,	50000,	174350,	39,	136,	0.98535
an2:0:ANACANFZ16-01F4-131F.cern.ch,	20000,	50000,	200175,	39,	157,	1.0988
an2:1:ANACANFZ16-01F4-131F.cern.ch,	20000,	50000,	224308,	39,	175,	1.2048
an2:2:ANACANFZ16-01F4-131F.cern.ch,	20000,	50000,	224297,	39,	175,	1.20475
an2:3:ANACANFZ16-01F4-131F.cern.ch,	20000,	50000,	224273,	39,	175,	1.20465
an2:0:ANACANFZ16-01F8-1320.cern.ch,	20000,	50000,	224261,	39,	175,	1.20455
an2:1:ANACANFZ16-01F8-1320.cern.ch,	20000,	50000,	224244,	39,	175,	1.2045
an2:2:ANACANFZ16-01F8-1320.cern.ch,	20000,	50000,	224226,	39,	175,	1.2044
an2:3:ANACANFZ16-01F8-1320.cern.ch,	20000,	50000,	224201,	39,	175,	1.2043
an2:4:ANACANFZ16-01F8-1320.cern.ch,	20000,	50000,	224184,	39,	175,	1.2052
an2:5:ANACANFZ16-01F8-1320.cern.ch,	20000,	50000,	224172,	39,	175,	1.20515
an2:6:ANACANFZ16-01F8-1320.cern.ch,	20000,	50000,	224157,	39,	175,	1.20505
an2:7:ANACANFZ16-01F8-1320.cern.ch,	20000,	50000,	224157,	39,	175,	1.20505
