# canx, statistics, dump, version 2.2.4, 19-2-2024, 12h4m14s
bus,	port.BR ,	tot.tx ,	tot.rx ,	tx.FR ,	rx.FR ,	hw.BL 
sock:can0,	125000,	100,	1500,	4,	65,	0.062328
sock:can1,	125000,	100,	1500,	4,	65,	0.062328
sock:can2,	125000,	100,	1500,	4,	65,	0.062328
sock:can3,	125000,	100,	1500,	4,	65,	0.062328
sock:can4,	125000,	100,	1500,	4,	65,	0.062328
sock:can5,	125000,	100,	1500,	4,	65,	0.062328
sock:can6,	125000,	100,	1500,	4,	65,	0.062328
sock:can7,	125000,	100,	1500,	4,	65,	0.062328
sock:can8,	125000,	100,	1500,	4,	68,	0.06516
sock:can9,	125000,	100,	1500,	4,	68,	0.06516
sock:can10,	125000,	100,	1500,	4,	68,	0.06516
sock:can11,	125000,	100,	1500,	4,	68,	0.06516
sock:can12,	125000,	100,	1500,	4,	68,	0.06516
sock:can13,	125000,	100,	1500,	4,	68,	0.06516
sock:can14,	125000,	100,	1500,	4,	68,	0.06516
sock:can15,	125000,	100,	1500,	4,	68,	0.06516
