# canx, statistics, dump, version 2.2.4, 18-2-2024, 14h17m48s
bus,	port.BR ,	tot.tx ,	tot.rx ,	tx.FR ,	rx.FR ,	hw.BL 
sock:can0,	125000,	50000,	750000,	16,	247,	0.23688
sock:can1,	125000,	50000,	750000,	16,	247,	0.23688
sock:can2,	125000,	50000,	750000,	16,	247,	0.23688
sock:can3,	125000,	50000,	750000,	16,	247,	0.23688
sock:can4,	125000,	50000,	750000,	16,	247,	0.23688
sock:can5,	125000,	50000,	750000,	16,	247,	0.23688
sock:can6,	125000,	50000,	750000,	16,	247,	0.23688
sock:can7,	125000,	50000,	750000,	16,	247,	0.23688
sock:can8,	125000,	50000,	750000,	16,	247,	0.236952
sock:can9,	125000,	50000,	750000,	16,	247,	0.236952
sock:can10,	125000,	50000,	750000,	16,	247,	0.236952
sock:can11,	125000,	50000,	750000,	16,	247,	0.236952
sock:can12,	125000,	50000,	750000,	16,	247,	0.236952
sock:can13,	125000,	50000,	750000,	16,	247,	0.236952
sock:can14,	125000,	50000,	750000,	16,	247,	0.236952
sock:can15,	125000,	50000,	750000,	16,	247,	0.236952
