\relax 
\providecommand\hyper@newdestlabel[2]{}
\providecommand\babel@aux[2]{}
\@nameuse{bbl@beforestart}
\providecommand\HyperFirstAtBeginDocument{\AtBeginDocument}
\HyperFirstAtBeginDocument{\ifx\hyper@anchor\@undefined
\global\let\oldcontentsline\contentsline
\gdef\contentsline#1#2#3#4{\oldcontentsline{#1}{#2}{#3}}
\global\let\oldnewlabel\newlabel
\gdef\newlabel#1#2{\newlabelxx{#1}#2}
\gdef\newlabelxx#1#2#3#4#5#6{\oldnewlabel{#1}{{#2}{#3}}}
\AtEndDocument{\ifx\hyper@anchor\@undefined
\let\contentsline\oldcontentsline
\let\newlabel\oldnewlabel
\fi}
\fi}
\global\let\hyper@last\relax 
\gdef\HyperFirstAtBeginDocument#1{#1}
\providecommand\HyField@AuxAddToFields[1]{}
\providecommand\HyField@AuxAddToCoFields[2]{}
\babel@aux{english}{}
\newlabel{index::doc}{{}{1}{}{section*.2}{}}
\@writefile{toc}{\contentsline {chapter}{\numberline {1}Overview}{1}{chapter.1}\protected@file@percent }
\@writefile{lof}{\addvspace {10\p@ }}
\@writefile{lot}{\addvspace {10\p@ }}
\newlabel{overview:overview}{{1}{1}{Overview}{chapter.1}{}}
\newlabel{overview::doc}{{1}{1}{Overview}{chapter.1}{}}
\@writefile{toc}{\contentsline {chapter}{\numberline {2}Test Environment}{3}{chapter.2}\protected@file@percent }
\@writefile{lof}{\addvspace {10\p@ }}
\@writefile{lot}{\addvspace {10\p@ }}
\newlabel{overview:test-environment}{{2}{3}{Test Environment}{chapter.2}{}}
\@writefile{toc}{\contentsline {chapter}{\numberline {3}Linux Anagate}{5}{chapter.3}\protected@file@percent }
\@writefile{lof}{\addvspace {10\p@ }}
\@writefile{lot}{\addvspace {10\p@ }}
\newlabel{linuxanagate:linux-anagate}{{3}{5}{Linux Anagate}{chapter.3}{}}
\newlabel{linuxanagate::doc}{{3}{5}{Linux Anagate}{chapter.3}{}}
\@writefile{toc}{\contentsline {chapter}{\numberline {4}Linux Anagate Summary}{7}{chapter.4}\protected@file@percent }
\@writefile{lof}{\addvspace {10\p@ }}
\@writefile{lot}{\addvspace {10\p@ }}
\newlabel{linuxanagatesummary:linux-anagate-summary}{{4}{7}{Linux Anagate Summary}{chapter.4}{}}
\newlabel{linuxanagatesummary::doc}{{4}{7}{Linux Anagate Summary}{chapter.4}{}}
\@writefile{toc}{\contentsline {chapter}{\numberline {5}Linux Systec}{9}{chapter.5}\protected@file@percent }
\@writefile{lof}{\addvspace {10\p@ }}
\@writefile{lot}{\addvspace {10\p@ }}
\newlabel{linuxsystec:linux-systec}{{5}{9}{Linux Systec}{chapter.5}{}}
\newlabel{linuxsystec::doc}{{5}{9}{Linux Systec}{chapter.5}{}}
\@writefile{toc}{\contentsline {section}{\numberline {5.1}Hardware}{9}{section.5.1}\protected@file@percent }
\newlabel{linuxsystec:hardware}{{5.1}{9}{Hardware}{section.5.1}{}}
\@writefile{toc}{\contentsline {section}{\numberline {5.2}OS version}{10}{section.5.2}\protected@file@percent }
\newlabel{linuxsystec:os-version}{{5.2}{10}{OS version}{section.5.2}{}}
\@writefile{toc}{\contentsline {section}{\numberline {5.3}Testing versions}{10}{section.5.3}\protected@file@percent }
\newlabel{linuxsystec:testing-versions}{{5.3}{10}{Testing versions}{section.5.3}{}}
\@writefile{toc}{\contentsline {chapter}{\numberline {6}Linux Systec Results}{11}{chapter.6}\protected@file@percent }
\@writefile{lof}{\addvspace {10\p@ }}
\@writefile{lot}{\addvspace {10\p@ }}
\newlabel{linuxsystecresults:linux-systec-results}{{6}{11}{Linux Systec Results}{chapter.6}{}}
\newlabel{linuxsystecresults::doc}{{6}{11}{Linux Systec Results}{chapter.6}{}}
\@writefile{toc}{\contentsline {section}{\numberline {6.1}abbreviations}{11}{section.6.1}\protected@file@percent }
\newlabel{linuxsystecresults:abbreviations}{{6.1}{11}{abbreviations}{section.6.1}{}}
\@writefile{toc}{\contentsline {section}{\numberline {6.2}tables}{11}{section.6.2}\protected@file@percent }
\newlabel{linuxsystecresults:tables}{{6.2}{11}{tables}{section.6.2}{}}
\@writefile{lot}{\contentsline {table}{\numberline {1}{\ignorespaces ./results\_systec/systec\_br125000\_delay1000000\_ports2\_frames5.xml.BusStatistics.csv}}{11}{table.6.1}\protected@file@percent }
\newlabel{linuxsystecresults:id1}{{1}{11}{tables}{table.6.1}{}}
\@writefile{lot}{\contentsline {table}{\numberline {2}{\ignorespaces ./results\_systec/systec\_br125000\_delay100000\_ports16\_frames10000.xml.BusStatistics.csv}}{12}{table.6.2}\protected@file@percent }
\newlabel{linuxsystecresults:id2}{{2}{12}{tables}{table.6.2}{}}
\@writefile{lot}{\contentsline {table}{\numberline {3}{\ignorespaces ./results\_systec/systec\_br125000\_delay100000\_ports16\_frames20000.xml.BusStatistics.csv}}{12}{table.6.3}\protected@file@percent }
\newlabel{linuxsystecresults:id3}{{3}{12}{tables}{table.6.3}{}}
\@writefile{lot}{\contentsline {table}{\numberline {4}{\ignorespaces ./results\_systec/systec\_br125000\_delay100000\_ports16\_frames50000.xml.BusStatistics.csv}}{13}{table.6.4}\protected@file@percent }
\newlabel{linuxsystecresults:id4}{{4}{13}{tables}{table.6.4}{}}
\@writefile{lot}{\contentsline {table}{\numberline {5}{\ignorespaces ./results\_systec/systec\_br125000\_delay10000\_ports16\_frames1000.xml.BusStatistics.csv}}{13}{table.6.5}\protected@file@percent }
\newlabel{linuxsystecresults:id5}{{5}{13}{tables}{table.6.5}{}}
\@writefile{lot}{\contentsline {table}{\numberline {6}{\ignorespaces ./results\_systec/systec\_br125000\_delay15000\_ports16\_frames1000.xml.BusStatistics.csv}}{14}{table.6.6}\protected@file@percent }
\newlabel{linuxsystecresults:id6}{{6}{14}{tables}{table.6.6}{}}
\@writefile{lot}{\contentsline {table}{\numberline {7}{\ignorespaces ./results\_systec/systec\_br125000\_delay20000\_ports16\_frames1000.xml.BusStatistics.csv}}{14}{table.6.7}\protected@file@percent }
\newlabel{linuxsystecresults:id7}{{7}{14}{tables}{table.6.7}{}}
\@writefile{lot}{\contentsline {table}{\numberline {8}{\ignorespaces ./results\_systec/systec\_br125000\_delay20000\_ports16\_frames100.xml.BusStatistics.csv}}{15}{table.6.8}\protected@file@percent }
\newlabel{linuxsystecresults:id8}{{8}{15}{tables}{table.6.8}{}}
\@writefile{lot}{\contentsline {table}{\numberline {9}{\ignorespaces ./results\_systec/systec\_br125000\_delay20000\_ports16\_frames50000.xml.BusStatistics.csv}}{15}{table.6.9}\protected@file@percent }
\newlabel{linuxsystecresults:id9}{{9}{15}{tables}{table.6.9}{}}
\@writefile{lot}{\contentsline {table}{\numberline {10}{\ignorespaces ./results\_systec/systec\_br125000\_delay25000\_ports16\_frames1000.xml.BusStatistics.csv}}{16}{table.6.10}\protected@file@percent }
\newlabel{linuxsystecresults:id10}{{10}{16}{tables}{table.6.10}{}}
\@writefile{lot}{\contentsline {table}{\numberline {11}{\ignorespaces ./results\_systec/systec\_br125000\_delay25000\_ports16\_frames100.xml.BusStatistics.csv}}{16}{table.6.11}\protected@file@percent }
\newlabel{linuxsystecresults:id11}{{11}{16}{tables}{table.6.11}{}}
\@writefile{lot}{\contentsline {table}{\numberline {12}{\ignorespaces ./results\_systec/systec\_br125000\_delay30000\_ports16\_frames1000.xml.BusStatistics.csv}}{17}{table.6.12}\protected@file@percent }
\newlabel{linuxsystecresults:id12}{{12}{17}{tables}{table.6.12}{}}
\@writefile{lot}{\contentsline {table}{\numberline {13}{\ignorespaces ./results\_systec/systec\_br125000\_delay30000\_ports16\_frames100.xml.BusStatistics.csv}}{17}{table.6.13}\protected@file@percent }
\newlabel{linuxsystecresults:id13}{{13}{17}{tables}{table.6.13}{}}
\@writefile{lot}{\contentsline {table}{\numberline {14}{\ignorespaces ./results\_systec/systec\_br125000\_delay30000\_ports16\_frames50000.xml.BusStatistics.csv}}{18}{table.6.14}\protected@file@percent }
\newlabel{linuxsystecresults:id14}{{14}{18}{tables}{table.6.14}{}}
\@writefile{lot}{\contentsline {table}{\numberline {15}{\ignorespaces ./results\_systec/systec\_br125000\_delay50000\_ports16\_frames10000.xml.BusStatistics.csv}}{18}{table.6.15}\protected@file@percent }
\newlabel{linuxsystecresults:id15}{{15}{18}{tables}{table.6.15}{}}
\@writefile{lot}{\contentsline {table}{\numberline {16}{\ignorespaces ./results\_systec/systec\_br125000\_delay50000\_ports16\_frames1000.xml.BusStatistics.csv}}{19}{table.6.16}\protected@file@percent }
\newlabel{linuxsystecresults:id16}{{16}{19}{tables}{table.6.16}{}}
\@writefile{lot}{\contentsline {table}{\numberline {17}{\ignorespaces ./results\_systec/systec\_br125000\_delay50000\_ports16\_frames50000.xml.BusStatistics.csv}}{19}{table.6.17}\protected@file@percent }
\newlabel{linuxsystecresults:id17}{{17}{19}{tables}{table.6.17}{}}
\@writefile{lot}{\contentsline {table}{\numberline {18}{\ignorespaces ./results\_systec/systec\_br125000\_delay50000\_ports16\_frames5000.xml.BusStatistics.csv}}{20}{table.6.18}\protected@file@percent }
\newlabel{linuxsystecresults:id18}{{18}{20}{tables}{table.6.18}{}}
\@writefile{lot}{\contentsline {table}{\numberline {19}{\ignorespaces ./results\_systec/systec\_br125000\_delay60000\_ports16\_frames50000.xml.BusStatistics.csv}}{20}{table.6.19}\protected@file@percent }
\newlabel{linuxsystecresults:id19}{{19}{20}{tables}{table.6.19}{}}
\@writefile{lot}{\contentsline {table}{\numberline {20}{\ignorespaces ./results\_systec/systec\_br125000\_delay60000\_ports16\_frames5000.xml.BusStatistics.csv}}{21}{table.6.20}\protected@file@percent }
\newlabel{linuxsystecresults:id20}{{20}{21}{tables}{table.6.20}{}}
\@writefile{lot}{\contentsline {table}{\numberline {21}{\ignorespaces ./results\_systec/systec\_br250000\_delay10000\_ports16\_frames1000.xml.BusStatistics.csv}}{21}{table.6.21}\protected@file@percent }
\newlabel{linuxsystecresults:id21}{{21}{21}{tables}{table.6.21}{}}
\@writefile{lot}{\contentsline {table}{\numberline {22}{\ignorespaces ./results\_systec/systec\_br250000\_delay10000\_ports16\_frames50000.xml.BusStatistics.csv}}{22}{table.6.22}\protected@file@percent }
\newlabel{linuxsystecresults:id22}{{22}{22}{tables}{table.6.22}{}}
\@writefile{lot}{\contentsline {table}{\numberline {23}{\ignorespaces ./results\_systec/systec\_br250000\_delay10000\_ports16\_frames5000.xml.BusStatistics.csv}}{22}{table.6.23}\protected@file@percent }
\newlabel{linuxsystecresults:id23}{{23}{22}{tables}{table.6.23}{}}
\@writefile{lot}{\contentsline {table}{\numberline {24}{\ignorespaces ./results\_systec/systec\_br250000\_delay15000\_ports16\_frames50000.xml.BusStatistics.csv}}{23}{table.6.24}\protected@file@percent }
\newlabel{linuxsystecresults:id24}{{24}{23}{tables}{table.6.24}{}}
\@writefile{lot}{\contentsline {table}{\numberline {25}{\ignorespaces ./results\_systec/systec\_br250000\_delay15000\_ports16\_frames5000.xml.BusStatistics.csv}}{23}{table.6.25}\protected@file@percent }
\newlabel{linuxsystecresults:id25}{{25}{23}{tables}{table.6.25}{}}
\@writefile{lot}{\contentsline {table}{\numberline {26}{\ignorespaces ./results\_systec/systec\_br250000\_delay20000\_ports16\_frames50000.xml.BusStatistics.csv}}{24}{table.6.26}\protected@file@percent }
\newlabel{linuxsystecresults:id26}{{26}{24}{tables}{table.6.26}{}}
\@writefile{lot}{\contentsline {table}{\numberline {27}{\ignorespaces ./results\_systec/systec\_br250000\_delay20000\_ports16\_frames5000.xml.BusStatistics.csv}}{24}{table.6.27}\protected@file@percent }
\newlabel{linuxsystecresults:id27}{{27}{24}{tables}{table.6.27}{}}
\@writefile{lot}{\contentsline {table}{\numberline {28}{\ignorespaces ./results\_systec/systec\_br250000\_delay25000\_ports16\_frames1000.xml.BusStatistics.csv}}{25}{table.6.28}\protected@file@percent }
\newlabel{linuxsystecresults:id28}{{28}{25}{tables}{table.6.28}{}}
\@writefile{lot}{\contentsline {table}{\numberline {29}{\ignorespaces ./results\_systec/systec\_br250000\_delay25000\_ports16\_frames50000.xml.BusStatistics.csv}}{25}{table.6.29}\protected@file@percent }
\newlabel{linuxsystecresults:id29}{{29}{25}{tables}{table.6.29}{}}
\@writefile{lot}{\contentsline {table}{\numberline {30}{\ignorespaces ./results\_systec/systec\_br250000\_delay25000\_ports16\_frames5000.xml.BusStatistics.csv}}{26}{table.6.30}\protected@file@percent }
\newlabel{linuxsystecresults:id30}{{30}{26}{tables}{table.6.30}{}}
\@writefile{toc}{\contentsline {chapter}{\numberline {7}Linux Systec Summary}{27}{chapter.7}\protected@file@percent }
\@writefile{lof}{\addvspace {10\p@ }}
\@writefile{lot}{\addvspace {10\p@ }}
\newlabel{linuxsystecsummary:linux-systec-summary}{{7}{27}{Linux Systec Summary}{chapter.7}{}}
\newlabel{linuxsystecsummary::doc}{{7}{27}{Linux Systec Summary}{chapter.7}{}}
\@writefile{toc}{\contentsline {section}{\numberline {7.1}125000 bits/s}{27}{section.7.1}\protected@file@percent }
\newlabel{linuxsystecsummary:bits-s}{{7.1}{27}{125000 bits/s}{section.7.1}{}}
\@writefile{toc}{\contentsline {section}{\numberline {7.2}250000 bits/s}{27}{section.7.2}\protected@file@percent }
\newlabel{linuxsystecsummary:id1}{{7.2}{27}{250000 bits/s}{section.7.2}{}}
\@writefile{toc}{\contentsline {chapter}{\numberline {8}Recommendation}{29}{chapter.8}\protected@file@percent }
\@writefile{lof}{\addvspace {10\p@ }}
\@writefile{lot}{\addvspace {10\p@ }}
\newlabel{linuxsystecsummary:recommendation}{{8}{29}{Recommendation}{chapter.8}{}}
\@writefile{toc}{\contentsline {chapter}{\numberline {9}Linux Peak}{31}{chapter.9}\protected@file@percent }
\@writefile{lof}{\addvspace {10\p@ }}
\@writefile{lot}{\addvspace {10\p@ }}
\newlabel{linuxpeak:linux-peak}{{9}{31}{Linux Peak}{chapter.9}{}}
\newlabel{linuxpeak::doc}{{9}{31}{Linux Peak}{chapter.9}{}}
\@writefile{toc}{\contentsline {section}{\numberline {9.1}Hardware}{31}{section.9.1}\protected@file@percent }
\newlabel{linuxpeak:hardware}{{9.1}{31}{Hardware}{section.9.1}{}}
\@writefile{toc}{\contentsline {section}{\numberline {9.2}OS version}{31}{section.9.2}\protected@file@percent }
\newlabel{linuxpeak:os-version}{{9.2}{31}{OS version}{section.9.2}{}}
\@writefile{toc}{\contentsline {section}{\numberline {9.3}Testing versions}{31}{section.9.3}\protected@file@percent }
\newlabel{linuxpeak:testing-versions}{{9.3}{31}{Testing versions}{section.9.3}{}}
\@writefile{toc}{\contentsline {chapter}{\numberline {10}Linux Peak Results}{33}{chapter.10}\protected@file@percent }
\@writefile{lof}{\addvspace {10\p@ }}
\@writefile{lot}{\addvspace {10\p@ }}
\newlabel{linuxpeakresults:linux-peak-results}{{10}{33}{Linux Peak Results}{chapter.10}{}}
\newlabel{linuxpeakresults::doc}{{10}{33}{Linux Peak Results}{chapter.10}{}}
\@writefile{toc}{\contentsline {section}{\numberline {10.1}abbreviations}{33}{section.10.1}\protected@file@percent }
\newlabel{linuxpeakresults:abbreviations}{{10.1}{33}{abbreviations}{section.10.1}{}}
\@writefile{toc}{\contentsline {section}{\numberline {10.2}tables}{33}{section.10.2}\protected@file@percent }
\newlabel{linuxpeakresults:tables}{{10.2}{33}{tables}{section.10.2}{}}
\@writefile{toc}{\contentsline {chapter}{\numberline {11}Linux Peak Summary}{39}{chapter.11}\protected@file@percent }
\@writefile{lof}{\addvspace {10\p@ }}
\@writefile{lot}{\addvspace {10\p@ }}
\newlabel{linuxpeaksummary:linux-peak-summary}{{11}{39}{Linux Peak Summary}{chapter.11}{}}
\newlabel{linuxpeaksummary::doc}{{11}{39}{Linux Peak Summary}{chapter.11}{}}
\@writefile{toc}{\contentsline {section}{\numberline {11.1}125000 bits/s}{39}{section.11.1}\protected@file@percent }
\newlabel{linuxpeaksummary:bits-s}{{11.1}{39}{125000 bits/s}{section.11.1}{}}
\@writefile{toc}{\contentsline {section}{\numberline {11.2}250000 bits/s}{39}{section.11.2}\protected@file@percent }
\newlabel{linuxpeaksummary:id1}{{11.2}{39}{250000 bits/s}{section.11.2}{}}
\@writefile{toc}{\contentsline {section}{\numberline {11.3}bitrates \textgreater {} 250000}{39}{section.11.3}\protected@file@percent }
\newlabel{linuxpeaksummary:bitrates-250000}{{11.3}{39}{bitrates \textgreater {} 250000}{section.11.3}{}}
\@writefile{toc}{\contentsline {chapter}{\numberline {12}Recommendation}{41}{chapter.12}\protected@file@percent }
\@writefile{lof}{\addvspace {10\p@ }}
\@writefile{lot}{\addvspace {10\p@ }}
\newlabel{linuxpeaksummary:recommendation}{{12}{41}{Recommendation}{chapter.12}{}}
\@writefile{toc}{\contentsline {chapter}{\numberline {13}Configurations}{43}{chapter.13}\protected@file@percent }
\@writefile{lof}{\addvspace {10\p@ }}
\@writefile{lot}{\addvspace {10\p@ }}
\newlabel{configurations:configurations}{{13}{43}{Configurations}{chapter.13}{}}
\newlabel{configurations::doc}{{13}{43}{Configurations}{chapter.13}{}}
\@writefile{toc}{\contentsline {chapter}{\numberline {14}Summary}{45}{chapter.14}\protected@file@percent }
\@writefile{lof}{\addvspace {10\p@ }}
\@writefile{lot}{\addvspace {10\p@ }}
\newlabel{summary:summary}{{14}{45}{Summary}{chapter.14}{}}
\newlabel{summary::doc}{{14}{45}{Summary}{chapter.14}{}}
\@writefile{toc}{\contentsline {chapter}{\numberline {15}alphabetical index}{47}{chapter.15}\protected@file@percent }
\@writefile{lof}{\addvspace {10\p@ }}
\@writefile{lot}{\addvspace {10\p@ }}
\newlabel{index:alphabetical-index}{{15}{47}{alphabetical index}{chapter.15}{}}
\gdef \@abspage@last{51}
